<svg xmlns="http://www.w3.org/2000/svg" width="90.332" height="102" viewBox="18.842 12.056 90.332 102" enable-background="new 18.842 12.056 90.332 102">
    <path d="M103.457 48.541h-2.449v-11.818l-.021-.223c-.004-.469-.154-.93-.475-1.295l-19.666-22.465-.016-.014c-.117-.131-.254-.24-.398-.334l-.131-.078c-.125-.068-.258-.125-.395-.166l-.107-.035c-.148-.035-.303-.057-.459-.057h-48.332c-2.207 0-4 1.795-4 4v32.484h-2.449c-3.157 0-5.717 2.559-5.717 5.717v29.73c0 3.156 2.56 5.717 5.717 5.717h2.449v20.352c0 2.205 1.793 4 4 4h66c2.205 0 4-1.795 4-4v-20.351h2.449c3.157 0 5.717-2.561 5.717-5.717v-29.73c0-3.158-2.56-5.717-5.717-5.717zm-74.455 36.478l9.934-32.5h9.644l10.078 32.5h-7.908l-2.507-8.342h-9.306l-2.315 8.342h-7.62zm68.006 23.954h-66v-19.268h66v19.268zm-34.015-23.954v-32.5h7.378v32.5h-7.378zm32.788-19.047v5.979h-11.67v13.068h-7.378v-32.5h19.867v6.027h-12.489v7.426h11.67zm1.227-17.431h-66v-32.484h46.332v20.465c0 1.105.896 2 2 2h17.668v10.019zm-51.852 15.743c-.579-1.93-1.157-4.34-1.64-6.27h-.097c-.482 1.93-.964 4.389-1.495 6.27l-1.929 6.896h7.185l-2.024-6.896z"/>
</svg>
