<svg xmlns="http://www.w3.org/2000/svg" width="90.332" height="102" viewBox="17.751 5.113 90.332 102" enable-background="new 17.751 5.113 90.332 102">
    <path d="M90.784 53.576c-1.218 0-2.043.117-2.476.236v7.818c.511.117 1.14.156 2.004.156 3.183 0 5.147-1.609 5.147-4.32.001-2.435-1.689-3.89-4.675-3.89zm11.582-11.978h-2.449v-11.819l-.021-.223c-.004-.469-.154-.93-.475-1.295l-19.667-22.464-.016-.014c-.117-.131-.254-.24-.398-.334l-.131-.078c-.125-.068-.258-.125-.395-.166l-.107-.035c-.148-.035-.303-.057-.459-.057h-48.331c-2.207 0-4 1.795-4 4v32.484h-2.449c-3.157 0-5.717 2.559-5.717 5.717v29.73c0 3.156 2.56 5.717 5.717 5.717h2.449v20.352c0 2.205 1.793 4 4 4h66c2.205 0 4-1.795 4-4v-20.351h2.449c3.157 0 5.717-2.561 5.717-5.717v-29.73c0-3.159-2.56-5.717-5.717-5.717zm-72.449-32.485h46.332v20.465c0 1.105.896 2 2 2h17.668v10.02h-66v-32.485zm47.858 66.621h-5.854l-.392-10.137c-.118-3.18-.236-7.029-.236-10.883h-.117c-.825 3.379-1.925 7.152-2.947 10.256l-3.221 10.332h-4.675l-2.829-10.252c-.865-3.105-1.768-6.877-2.396-10.336h-.079c-.157 3.576-.275 7.662-.471 10.963l-.472 10.057h-5.54l1.689-26.479h7.976l2.593 8.838c.825 3.066 1.65 6.367 2.238 9.469h.119c.746-3.063 1.649-6.559 2.514-9.508l2.829-8.799h7.817l1.454 26.479zm-52.018-21.449v-5.029h20.351v5.029h-7.229v21.449h-6.01v-21.449h-7.112zm70.16 47.744h-66v-19.267h66v19.267zm3.039-38.433c-2.043 1.926-5.067 2.789-8.604 2.789-.786 0-1.493-.039-2.044-.117v9.467h-5.932v-26.126c1.846-.316 4.439-.551 8.094-.551 3.692 0 6.324.709 8.093 2.123 1.688 1.334 2.828 3.533 2.828 6.129.001 2.592-.864 4.792-2.435 6.286z"/>
</svg>
