<svg xmlns="http://www.w3.org/2000/svg" width="90.332" height="102" viewBox="16.872 5.02 90.332 102" enable-background="new 16.872 5.02 90.332 102">
    <path d="M101.487 41.505h-2.449v-11.818l-.021-.223c-.004-.469-.154-.93-.475-1.295l-19.667-22.465-.015-.014c-.117-.131-.254-.24-.398-.334l-.131-.078c-.125-.068-.258-.125-.395-.166l-.107-.035c-.148-.035-.303-.057-.459-.057h-48.332c-2.207 0-4 1.795-4 4v32.484h-2.449c-3.157 0-5.717 2.559-5.717 5.717v29.73c0 3.156 2.56 5.717 5.717 5.717h2.449v20.352c0 2.205 1.793 4 4 4h66c2.205 0 4-1.795 4-4v-20.351h2.449c3.157 0 5.717-2.561 5.717-5.717v-29.73c0-3.159-2.56-5.717-5.717-5.717zm-72.449-32.484h46.332v20.465c0 1.105.896 2 2 2h17.668v10.02h-66v-32.485zm41.172 58.378c.876 3.17 1.751 6.84 2.294 7.924h-6.506c-.458-.793-1.126-3.086-1.96-6.547-.75-3.504-1.959-4.461-4.545-4.504h-1.918v11.051h-6.297v-27.73c2.043-.336 5.088-.586 8.465-.586 4.17 0 7.09.625 9.091 2.211 1.668 1.336 2.585 3.295 2.585 5.881 0 3.586-2.544 6.045-4.963 6.922v.125c1.961.792 3.046 2.669 3.754 5.253zm-45.041-5.712c0-9.592 6.839-14.93 15.346-14.93 3.295 0 5.797.668 6.922 1.252l-1.292 5.047c-1.293-.543-3.086-1.043-5.337-1.043-5.046 0-8.966 3.043-8.966 9.299 0 5.631 3.336 9.174 9.008 9.174 1.918 0 4.044-.416 5.296-.916l.959 4.961c-1.167.586-3.795 1.211-7.214 1.211-9.717-.001-14.722-6.048-14.722-14.055zm69.869 40.25h-66v-19.268h66v19.268zm-3.89-26.614l-2.544-5.088c-1.042-1.959-1.709-3.418-2.502-5.045h-.083c-.583 1.627-1.293 3.086-2.169 5.045l-2.335 5.088h-7.256l8.132-14.219-7.839-13.887h7.297l2.46 5.127c.834 1.711 1.46 3.086 2.127 4.672h.083c.667-1.793 1.209-3.045 1.918-4.672l2.377-5.127h7.256l-7.923 13.719 8.34 14.387h-7.339zm-30.696-23.603c-1.543 0-2.419.125-2.877.209v7.756h2.502c3.169 0 5.045-1.584 5.045-4.045.001-2.584-1.751-3.877-4.67-3.92z"/>
</svg>
