<svg xmlns="http://www.w3.org/2000/svg" width="90.332" height="102" viewBox="16.871 5.02 90.332 102" enable-background="new 16.871 5.02 90.332 102">
    <path d="M101.486 41.505h-2.449v-11.818l-.021-.223c-.004-.469-.154-.93-.475-1.295l-19.666-22.465-.016-.014c-.117-.131-.254-.24-.398-.334l-.131-.078c-.125-.068-.258-.125-.395-.166l-.107-.035c-.148-.035-.303-.057-.459-.057h-48.332c-2.207 0-4 1.795-4 4v32.484h-2.449c-3.156 0-5.717 2.559-5.717 5.717v29.73c0 3.156 2.561 5.717 5.717 5.717h2.449v20.352c0 2.205 1.793 4 4 4h66c2.205 0 4-1.795 4-4v-20.351h2.449c3.158 0 5.717-2.561 5.717-5.717v-29.73c0-3.159-2.558-5.717-5.717-5.717zm-6.449 60.432h-66v-19.268h66v19.268zm-53.652-48.136v-5.33h19.568v4.094l-11.426 23.621h-6.863l11.428-22.301v-.084h-12.707zm23.742-.469v-5.254h20.393v3.67l-13.094 19.016v.166h13.303v5.256h-21.852v-3.418l13.387-19.268v-.168h-12.137zm29.91-11.827h-66v-32.484h46.332v20.465c0 1.105.896 2 2 2h17.668v10.019z"/>
</svg>
