<svg xmlns="http://www.w3.org/2000/svg" width="90.332" height="102" viewBox="17.122 5.04 90.332 102" enable-background="new 17.122 5.04 90.332 102">
    <path d="M101.737 41.524h-2.449v-11.818l-.021-.223c-.004-.469-.154-.93-.475-1.295l-19.667-22.464-.015-.014c-.117-.131-.254-.24-.398-.334l-.131-.078c-.125-.068-.258-.125-.395-.166l-.107-.035c-.149-.035-.303-.057-.459-.057h-48.332c-2.207 0-4 1.795-4 4v32.484h-2.449c-3.157 0-5.717 2.559-5.717 5.717v29.73c0 3.156 2.56 5.717 5.717 5.717h2.449v20.352c0 2.205 1.793 4 4 4h66c2.205 0 4-1.795 4-4v-20.352h2.449c3.157 0 5.717-2.561 5.717-5.717v-29.73c0-3.158-2.56-5.717-5.717-5.717zm-72.449-32.484h46.332v20.465c0 1.105.896 2 2 2h17.668v10.02h-66v-32.485zm59.893 61.166h-3.69l-.248-6.389c-.074-2.006-.147-4.434-.147-6.859h-.074c-.521 2.129-1.213 4.506-1.857 6.463l-2.032 6.514h-2.945l-1.784-6.463c-.544-1.959-1.114-4.334-1.51-6.514h-.049c-.1 2.254-.173 4.828-.298 6.91l-.296 6.338h-3.492l1.065-16.691h5.027l1.634 5.572c.521 1.932 1.04 4.012 1.412 5.969h.074c.471-1.934 1.04-4.137 1.585-5.994l1.783-5.547h4.928l.914 16.691zm-32.784-13.521v-3.17h12.828v3.17h-4.557v13.521h-3.789v-13.521h-4.482zm-12.007 6.537v6.984h-3.788v-16.691h3.788v6.414h6.215v-6.414h3.765v16.691h-3.765v-6.984h-6.215zm-15.896 6.984h-4.308l4.829-8.445-4.656-8.246h4.333l1.461 3.047c.495 1.016.867 1.834 1.262 2.773h.05c.395-1.064.718-1.809 1.138-2.773l1.412-3.047h4.309l-4.705 8.146 4.952 8.545h-4.358l-1.511-3.021c-.619-1.164-1.016-2.031-1.486-2.998h-.049c-.347.967-.768 1.834-1.288 2.998l-1.385 3.021zm66.794 31.75h-66v-19.268h66v19.268zm7.212-31.75h-10.424v-16.691h3.788v13.521h6.636v3.17z"/>
</svg>
