<svg xmlns="http://www.w3.org/2000/svg" width="90.332" height="102" viewBox="17.879 12.46 90.332 102" enable-background="new 17.879 12.46 90.332 102">
    <path d="M102.494 48.944h-2.449v-11.818l-.021-.223c-.004-.469-.154-.93-.475-1.295l-19.666-22.464-.016-.014c-.117-.131-.254-.24-.398-.334l-.131-.078c-.125-.068-.258-.125-.395-.166l-.107-.035c-.148-.035-.303-.057-.459-.057h-48.332c-2.207 0-4 1.795-4 4v32.484h-2.449c-3.156 0-5.717 2.559-5.717 5.717v29.73c0 3.156 2.561 5.717 5.717 5.717h2.449v20.352c0 2.205 1.793 4 4 4h66c2.205 0 4-1.795 4-4v-20.352h2.449c3.158 0 5.717-2.561 5.717-5.717v-29.73c0-3.158-2.559-5.717-5.717-5.717zm-72.449-32.484h46.332v20.465c0 1.105.896 2 2 2h17.668v10.02h-66v-32.485zm48.629 40.561l-6.291 24.377h-5.969l-2.063-10.488c-.469-2.459-.869-4.738-1.156-7.523h-.072c-.436 2.752-.832 5.064-1.41 7.523l-2.314 10.488h-6.041l-5.788-24.377h5.896l1.844 10.055c.543 2.893 1.049 6.039 1.447 8.498h.072c.398-2.639.977-5.568 1.592-8.57l2.061-9.982h5.859l1.953 10.27c.543 2.859.939 5.463 1.303 8.176h.072c.361-2.713.902-5.568 1.408-8.463l1.992-9.982h5.605v-.002zm-54.174 24.269v-23.943c2.025-.326 4.664-.506 7.449-.506 4.631 0 7.631.832 9.982 2.605 2.533 1.879 4.121 4.881 4.121 9.184 0 4.668-1.697 7.885-4.049 9.873-2.566 2.135-6.473 3.146-11.248 3.146-2.855 0-4.882-.179-6.255-.359zm71.545 28.086h-66v-19.268h66v19.268zm5.553-29.1c-1.699.576-4.916 1.373-8.137 1.373-4.447 0-7.666-1.121-9.908-3.289-2.242-2.1-3.475-5.281-3.436-8.861.035-8.102 5.93-12.73 13.924-12.73 3.145 0 5.568.613 6.764 1.191l-1.158 4.412c-1.338-.576-3.002-1.047-5.678-1.047-4.592 0-8.066 2.604-8.066 7.885 0 5.025 3.146 7.99 7.668 7.99 1.268 0 2.279-.143 2.711-.359v-5.1h-3.76v-4.305h9.076v12.84zm-61.405-11.464c.039-5.063-2.926-7.74-7.664-7.74-1.229 0-2.025.109-2.496.219v15.947c.471.109 1.23.109 1.916.109 4.992.035 8.244-2.713 8.244-8.535z"/>
</svg>
