<svg xmlns="http://www.w3.org/2000/svg" width="90.332" height="102" viewBox="16.871 5.02 90.332 102" enable-background="new 16.871 5.02 90.332 102">
    <path d="M88.162 55.474c0-2.698-1.873-4.312-5.184-4.312-1.35 0-2.264.13-2.742.261v8.664c.566.132 1.264.176 2.221.176 3.525 0 5.705-1.786 5.705-4.789zm13.324-13.969h-2.449v-11.818l-.021-.223c-.004-.469-.154-.93-.475-1.295l-19.666-22.465-.016-.014c-.117-.131-.254-.24-.398-.334l-.131-.078c-.125-.068-.258-.125-.395-.166l-.107-.035c-.148-.035-.303-.057-.459-.057h-48.332c-2.207 0-4 1.795-4 4v32.484h-2.449c-3.156 0-5.717 2.559-5.717 5.717v29.73c0 3.156 2.561 5.717 5.717 5.717h2.449v20.352c0 2.205 1.793 4 4 4h66c2.205 0 4-1.795 4-4v-20.351h2.449c3.158 0 5.717-2.561 5.717-5.717v-29.73c0-3.159-2.558-5.717-5.717-5.717zm-6.449 60.432h-66v-19.268h66v19.268zm-65.699-26.435l.742-5.354c.916.304 2.088.521 3.395.521 2.789 0 4.529-1.262 4.529-5.834v-18.462h6.619v18.549c0 8.36-4.008 11.276-10.451 11.276-1.524 0-3.527-.26-4.834-.696zm28.129-12.104c-4.879-1.698-8.055-4.398-8.055-8.664 0-5.009 4.178-8.842 11.104-8.842 3.309 0 5.744.697 7.488 1.482l-1.48 5.355c-1.176-.566-3.266-1.394-6.141-1.394-2.873 0-4.266 1.305-4.266 2.829 0 1.872 1.654 2.7 5.441 4.136 5.18 1.917 7.621 4.618 7.621 8.755 0 4.919-3.787 9.1-11.848 9.1-3.352 0-6.66-.871-8.313-1.785l1.35-5.487c1.785.914 4.527 1.831 7.357 1.831 3.049 0 4.658-1.265 4.658-3.182.002-1.826-1.391-2.872-4.916-4.134zm16.195 12.323v-28.956c2.043-.349 4.922-.609 8.969-.609 4.094 0 7.012.782 8.971 2.351 1.873 1.479 3.137 3.917 3.137 6.793 0 2.874-.957 5.311-2.701 6.967-2.266 2.133-5.617 3.094-9.535 3.094-.873 0-1.658-.045-2.266-.134v10.495l-6.575-.001zm21.375-34.216h-66v-32.484h46.332v20.465c0 1.105.896 2 2 2h17.668v10.019z"/>
</svg>
