<svg xmlns="http://www.w3.org/2000/svg" width="90.332" height="102" viewBox="16.872 5.02 90.332 102" enable-background="new 16.872 5.02 90.332 102">
    <path d="M101.487 41.505h-2.449v-11.818l-.021-.223c-.004-.469-.154-.93-.475-1.295l-19.667-22.465-.015-.014c-.117-.131-.254-.24-.398-.334l-.131-.078c-.125-.068-.258-.125-.395-.166l-.107-.035c-.148-.035-.303-.057-.459-.057h-48.332c-2.207 0-4 1.795-4 4v32.484h-2.449c-3.157 0-5.717 2.559-5.717 5.717v29.73c0 3.156 2.56 5.717 5.717 5.717h2.449v20.352c0 2.205 1.793 4 4 4h66c2.205 0 4-1.795 4-4v-20.351h2.449c3.157 0 5.717-2.561 5.717-5.717v-29.73c0-3.159-2.56-5.717-5.717-5.717zm-72.449-32.484h46.332v20.465c0 1.105.896 2 2 2h17.668v10.02h-66v-32.485zm50.762 64.472h-5.657l-.38-9.798c-.114-3.075-.228-6.797-.228-10.517h-.114c-.798 3.264-1.86 6.91-2.848 9.908l-3.114 9.986h-4.52l-2.733-9.91c-.835-2.998-1.708-6.645-2.316-9.984h-.076c-.151 3.454-.266 7.403-.455 10.594l-.457 9.721h-5.354l1.634-25.593h7.708l2.506 8.542c.797 2.963 1.595 6.152 2.165 9.15h.114c.721-2.96 1.595-6.342 2.431-9.188l2.734-8.505h7.556l1.404 25.594zm-50.993 0v-25.593h5.734v11.313h.114c.57-.987 1.177-1.897 1.747-2.809l5.81-8.505h7.101l-8.468 10.897 8.922 14.695h-6.758l-6.266-11.052-2.203 2.698v8.354h-5.733v.002zm66.231 28.444h-66v-19.268h66v19.268zm5.188-28.444h-15.987v-25.593h5.81v20.732h10.178l-.001 4.861z"/>
</svg>
