<svg xmlns="http://www.w3.org/2000/svg" width="90.332" height="102" viewBox="17.75 5.113 90.332 102" enable-background="new 17.75 5.113 90.332 102">
    <path d="M102.365 41.598h-2.449v-11.819l-.021-.223c-.004-.469-.154-.93-.475-1.295l-19.666-22.464-.016-.014c-.117-.131-.254-.24-.398-.334l-.131-.078c-.125-.068-.258-.125-.395-.166l-.107-.035c-.148-.035-.303-.057-.459-.057h-48.332c-2.207 0-4 1.795-4 4v32.484h-2.449c-3.156 0-5.717 2.559-5.717 5.717v29.73c0 3.156 2.561 5.717 5.717 5.717h2.449v20.352c0 2.205 1.793 4 4 4h66c2.205 0 4-1.795 4-4v-20.351h2.449c3.158 0 5.717-2.561 5.717-5.717v-29.73c0-3.159-2.559-5.717-5.717-5.717zm-72.449-32.485h46.332v20.465c0 1.105.896 2 2 2h17.668v10.02h-66v-32.485zm37.666 63.155c1.918 0 4.043-.42 5.297-.92l.957 4.963c-1.166.584-3.795 1.209-7.213 1.209-9.717 0-14.721-6.047-14.721-14.053 0-9.592 6.838-14.93 15.346-14.93 3.293 0 5.797.668 6.922 1.254l-1.291 5.043c-1.293-.541-3.088-1.041-5.338-1.041-5.047 0-8.967 3.045-8.967 9.299 0 5.631 3.336 9.176 9.008 9.176zm-42.957-23.272h6.965l3.42 11.885c.959 3.338 1.834 6.549 2.5 10.051h.125c.709-3.377 1.586-6.713 2.543-9.924l3.588-12.012h6.756l-9.465 28.109h-7.426l-9.006-28.109zm71.291 53.033h-66v-19.267h66v19.267zm2.277-28.261c-2.961 2.461-7.465 3.627-12.969 3.627-3.295 0-5.631-.209-7.215-.414v-27.61c2.334-.375 5.379-.584 8.592-.584 5.338 0 8.797.959 11.51 3.004 2.918 2.168 4.754 5.631 4.754 10.592 0 5.381-1.961 9.09-4.672 11.385zm-10.925-20.1c-1.418 0-2.336.125-2.877.25v18.391c.541.125 1.416.125 2.211.125 5.754.043 9.506-3.129 9.506-9.842.042-5.838-3.378-8.924-8.84-8.924z"/>
</svg>
