<svg xmlns="http://www.w3.org/2000/svg" width="90.332" height="102" viewBox="16.872 5.02 90.332 102" enable-background="new 16.872 5.02 90.332 102">
    <path d="M35.454 56.385c-.537-1.792-1.075-4.029-1.522-5.819h-.09c-.447 1.79-.895 4.071-1.387 5.819l-1.792 6.4h6.67l-1.879-6.4zm50.304-5.999c-1.387 0-2.328.133-2.819.27v8.905c.582.137 1.297.18 2.282.18 3.625 0 5.864-1.835 5.864-4.922-.001-2.777-1.926-4.433-5.327-4.433zm15.729-8.881h-2.449v-11.818l-.021-.223c-.004-.469-.154-.93-.475-1.295l-19.667-22.465-.015-.014c-.117-.131-.254-.24-.398-.334l-.131-.078c-.125-.068-.258-.125-.395-.166l-.107-.035c-.148-.035-.303-.057-.459-.057h-48.332c-2.207 0-4 1.795-4 4v32.484h-2.449c-3.157 0-5.717 2.559-5.717 5.717v29.73c0 3.156 2.56 5.717 5.717 5.717h2.449v20.352c0 2.205 1.793 4 4 4h66c2.205 0 4-1.795 4-4v-20.351h2.449c3.157 0 5.717-2.561 5.717-5.717v-29.73c0-3.159-2.56-5.717-5.717-5.717zm-72.449-32.484h46.332v20.465c0 1.105.896 2 2 2h17.668v10.02h-66v-32.485zm30.494 53.942c-5.013-1.745-8.281-4.519-8.281-8.905 0-5.148 4.297-9.088 11.414-9.088 3.401 0 5.908.718 7.699 1.522l-1.521 5.505c-1.209-.581-3.357-1.432-6.311-1.432-2.955 0-4.387 1.343-4.387 2.907 0 1.926 1.701 2.776 5.594 4.254 5.328 1.971 7.834 4.745 7.834 8.996 0 5.06-3.895 9.356-12.177 9.356-3.445 0-6.847-.896-8.548-1.836l1.388-5.639c1.834.941 4.654 1.879 7.564 1.879 3.132 0 4.789-1.299 4.789-3.268 0-1.877-1.432-2.953-5.057-4.251zm-32 12.668h-7.072l9.22-30.17h8.953l9.355 30.17h-7.341l-2.327-7.742h-8.64l-2.148 7.742zm67.506 26.306h-66v-19.268h66v19.268zm.03-40.136c-2.328 2.192-5.774 3.177-9.803 3.177-.895 0-1.701-.044-2.327-.136v10.789h-6.76v-29.766c2.103-.359 5.058-.626 9.221-.626 4.209 0 7.208.806 9.222 2.415 1.925 1.522 3.221 4.029 3.221 6.982 0 2.957-.984 5.463-2.774 7.165z"/>
</svg>
