<svg xmlns="http://www.w3.org/2000/svg" width="90.332" height="102" viewBox="18.592 12.037 90.332 102" enable-background="new 18.592 12.037 90.332 102">
    <path d="M69.053 65.169c-.453-1.506-.904-3.391-1.281-4.898h-.076c-.377 1.508-.754 3.43-1.168 4.898l-1.508 5.387h5.615l-1.582-5.387zm34.154-16.648h-2.449v-11.818l-.021-.223c-.004-.469-.154-.93-.475-1.295l-19.666-22.464-.016-.014c-.117-.131-.254-.24-.398-.334l-.131-.078c-.125-.068-.258-.125-.395-.166l-.107-.035c-.148-.035-.303-.057-.459-.057h-48.332c-2.207 0-4 1.795-4 4v32.484h-2.449c-3.157 0-5.717 2.559-5.717 5.717v29.73c0 3.156 2.56 5.717 5.717 5.717h2.449v20.352c0 2.205 1.793 4 4 4h66c2.205 0 4-1.795 4-4v-20.351h2.449c3.157 0 5.717-2.561 5.717-5.717v-29.73c0-3.159-2.56-5.718-5.717-5.718zm-72.449-32.484h46.332v20.465c0 1.105.896 2 2 2h17.668v10.02h-66v-32.485zm48.842 65.331h-6.178l-1.961-6.518h-7.268l-1.809 6.518h-5.953l7.762-25.391h7.533l7.874 25.391zm-53.643 0l1.619-25.391h7.648l2.486 8.475c.791 2.939 1.582 6.104 2.146 9.08h.113c.717-2.939 1.582-6.291 2.412-9.115l2.711-8.439h7.498l1.393 25.391h-5.613l-.377-9.719c-.113-3.051-.227-6.744-.227-10.436h-.113c-.791 3.238-1.846 6.855-2.824 9.832l-3.09 9.906h-4.482l-2.711-9.83c-.83-2.979-1.695-6.594-2.299-9.908h-.074c-.152 3.428-.266 7.346-.453 10.51l-.451 9.645-5.312-.001zm70.801 27.585h-66v-19.267h66v19.267zm-1.301-27.585l-2.299-4.596c-.939-1.771-1.543-3.09-2.26-4.561h-.074c-.527 1.471-1.168 2.789-1.959 4.561l-2.109 4.596h-6.555l7.346-12.848-7.084-12.543h6.594l2.225 4.635c.752 1.543 1.316 2.785 1.92 4.217h.074c.604-1.619 1.092-2.75 1.734-4.217l2.146-4.635h6.555l-7.158 12.393 7.537 12.998h-6.633z"/>
</svg>
