<svg xmlns="http://www.w3.org/2000/svg" width="90.332" height="102" viewBox="18.592 12.037 90.332 102" enable-background="new 18.592 12.037 90.332 102">
    <path d="M103.207 48.521h-2.449v-11.818l-.021-.223c-.004-.469-.154-.93-.475-1.295l-19.666-22.464-.016-.014c-.117-.131-.254-.24-.398-.334l-.131-.078c-.125-.068-.258-.125-.395-.166l-.107-.035c-.148-.035-.303-.057-.459-.057h-48.332c-2.207 0-4 1.795-4 4v32.484h-2.449c-3.157 0-5.717 2.559-5.717 5.717v29.73c0 3.156 2.56 5.717 5.717 5.717h2.449v20.352c0 2.205 1.793 4 4 4h66c2.205 0 4-1.795 4-4v-20.351h2.449c3.157 0 5.717-2.561 5.717-5.717v-29.73c0-3.159-2.56-5.718-5.717-5.718zm-73.643 33.032l8.332-27.264h8.09l8.453 27.264h-6.633l-2.104-6.998h-7.807l-1.941 6.998h-6.39zm67.194 27.4h-66v-19.267h66v19.267zm-31.885-38.848c-4.529-1.578-7.482-4.086-7.482-8.051 0-4.65 3.883-8.211 10.314-8.211 3.076 0 5.34.648 6.957 1.375l-1.377 4.977c-1.092-.525-3.031-1.295-5.703-1.295-2.668 0-3.963 1.213-3.963 2.629 0 1.74 1.537 2.508 5.057 3.844 4.814 1.779 7.08 4.287 7.08 8.129 0 4.572-3.521 8.455-11.004 8.455-3.115 0-6.188-.809-7.727-1.658l1.254-5.098c1.66.85 4.209 1.699 6.836 1.699 2.832 0 4.328-1.174 4.328-2.953 0-1.699-1.293-2.67-4.57-3.842zm31.022-4.529v5.014h-9.789v10.963h-6.188v-27.264h16.664v5.057h-10.477v6.23h9.79zm.863-17.055h-66v-32.484h46.332v20.465c0 1.105.896 2 2 2h17.668v10.019zm-53.643 15.639c-.486-1.619-.971-3.641-1.375-5.26h-.082c-.404 1.619-.809 3.682-1.256 5.26l-1.615 5.783h6.025l-1.697-5.783z"/>
</svg>
