<svg xmlns="http://www.w3.org/2000/svg" width="90.332" height="102" viewBox="17.713 12.443 90.332 102" enable-background="new 17.713 12.443 90.332 102">
    <path d="M92.023 60.332h-.069c-.349 1.395-.697 3.174-1.08 4.535l-1.396 4.987h5.198l-1.464-4.987c-.421-1.395-.837-3.14-1.189-4.535zm10.305-11.404h-2.449v-11.818l-.021-.223c-.004-.469-.154-.93-.475-1.295l-19.666-22.465-.016-.014c-.117-.131-.254-.24-.398-.334l-.131-.078c-.125-.068-.258-.125-.395-.166l-.107-.035c-.148-.035-.303-.057-.459-.057h-48.332c-2.207 0-4 1.795-4 4v32.484h-2.449c-3.157 0-5.717 2.559-5.717 5.717v29.73c0 3.156 2.56 5.717 5.717 5.717h2.449v20.352c0 2.205 1.793 4 4 4h66c2.205 0 4-1.795 4-4v-20.351h2.449c3.157 0 5.717-2.561 5.717-5.717v-29.73c0-3.158-2.56-5.717-5.717-5.717zm-72.449-32.484h46.332v20.465c0 1.105.896 2 2 2h17.668v10.02h-66v-32.485zm49.377 63.419h-5.195l-.349-8.998c-.106-2.825-.21-6.244-.21-9.661h-.105c-.73 2.998-1.707 6.346-2.613 9.102l-2.861 9.172h-4.15l-2.51-9.101c-.768-2.755-1.57-6.104-2.128-9.173h-.07c-.14 3.174-.245 6.801-.418 9.73l-.419 8.928h-4.918l1.498-23.507h7.081l2.302 7.847c.733 2.72 1.464 5.65 1.988 8.405h.104c.663-2.719 1.464-5.824 2.233-8.438l2.51-7.813h6.939l1.291 23.507zm-52.594 0l-5.581-23.507h5.685l1.778 9.696c.522 2.789 1.011 5.824 1.396 8.195h.069c.385-2.546.94-5.37 1.534-8.265l1.988-9.626h5.65l1.883 9.905c.521 2.756.906 5.266 1.255 7.882h.069c.349-2.616.873-5.372 1.361-8.161l1.919-9.626h5.405l-6.069 23.507h-5.754l-1.988-10.115c-.454-2.371-.837-4.567-1.115-7.252h-.07c-.418 2.65-.803 4.881-1.36 7.252l-2.231 10.115h-5.824zm69.217 29.497h-66v-19.268h66v19.268zm1.377-29.497l-1.813-6.034h-6.732l-1.674 6.034h-5.511l7.185-23.507h6.975l7.29 23.507h-5.72z"/>
</svg>
