<svg xmlns="http://www.w3.org/2000/svg" width="90.332" height="102" viewBox="18.592 12.536 90.332 102" enable-background="new 18.592 12.536 90.332 102">
    <path d="M103.207 49.021h-2.449v-11.818l-.021-.223c-.004-.469-.154-.93-.475-1.295l-19.666-22.465-.016-.014c-.117-.131-.254-.24-.398-.334l-.131-.078c-.125-.068-.258-.125-.395-.166l-.107-.035c-.148-.035-.303-.057-.459-.057h-48.332c-2.207 0-4 1.795-4 4v32.484h-2.449c-3.157 0-5.717 2.559-5.717 5.717v29.73c0 3.156 2.56 5.717 5.717 5.717h2.449v20.352c0 2.205 1.793 4 4 4h66c2.205 0 4-1.795 4-4v-20.351h2.449c3.157 0 5.717-2.561 5.717-5.717v-29.73c0-3.158-2.56-5.717-5.717-5.717zm-72.449-32.484h46.332v20.465c0 1.105.896 2 2 2h17.668v10.02h-66v-32.485zm57.271 63.404h-4.834l-.324-8.605c-.098-2.703-.195-5.97-.195-9.24h-.096c-.684 2.868-1.592 6.071-2.438 8.707l-2.658 8.771h-3.861l-2.338-8.704c-.713-2.635-1.461-5.838-1.98-8.773h-.065c-.131 3.037-.229 6.505-.389 9.306l-.391 8.54h-4.576l1.395-22.481h6.588l2.143 7.504c.684 2.602 1.363 5.404 1.852 8.04h.096c.619-2.603 1.363-5.57 2.078-8.072l2.336-7.472h6.459l1.198 22.479zm-42.968-18.212v-4.27h16.809v4.27h-5.97v18.211h-4.967v-18.211h-5.872zm-15.747 8.806v9.406h-4.963v-22.482h4.963v8.639h8.148v-8.639h4.934v22.481h-4.934v-9.406l-8.148.001zm67.444 38.918h-66v-19.268h66v19.268zm8.738-29.512h-13.664v-22.482h4.965v18.211h8.699v4.271z"/>
</svg>
