<svg xmlns="http://www.w3.org/2000/svg" width="90.332" height="102" viewBox="16.872 5.02 90.332 102" enable-background="new 16.872 5.02 90.332 102">
    <path d="M101.487 41.505h-2.449v-11.818l-.021-.223c-.004-.469-.154-.93-.475-1.295l-19.667-22.465-.015-.014c-.117-.131-.254-.24-.398-.334l-.131-.078c-.125-.068-.258-.125-.395-.166l-.107-.035c-.148-.035-.303-.057-.459-.057h-48.332c-2.207 0-4 1.795-4 4v32.484h-2.449c-3.157 0-5.717 2.559-5.717 5.717v29.73c0 3.156 2.56 5.717 5.717 5.717h2.449v20.352c0 2.205 1.793 4 4 4h66c2.205 0 4-1.795 4-4v-20.351h2.449c3.157 0 5.717-2.561 5.717-5.717v-29.73c0-3.159-2.56-5.717-5.717-5.717zm-72.449-32.484h46.332v20.465c0 1.105.896 2 2 2h17.668v10.02h-66v-32.485zm49.181 65.107h-5.917l-.398-10.248c-.119-3.216-.239-7.109-.239-10.999h-.119c-.834 3.415-1.945 7.227-2.978 10.365l-3.256 10.444h-4.726l-2.859-10.365c-.873-3.137-1.787-6.949-2.423-10.444h-.08c-.158 3.613-.278 7.741-.476 11.079l-.477 10.168h-5.6l1.708-26.77h8.063l2.622 8.938c.833 3.098 1.667 6.434 2.264 9.569h.118c.755-3.097 1.668-6.63 2.542-9.609l2.859-8.897h7.903l1.469 26.769zm-53.333 0v-26.77h5.997v11.838h.12c.596-1.034 1.23-1.987 1.827-2.94l6.075-8.897h7.427l-8.856 11.4 9.333 15.369h-7.069l-6.553-11.557-2.304 2.818v8.738l-5.997.001zm70.152 27.809h-66v-19.268h66v19.268zm6.925-27.809h-20.81v-3.259l12.749-18.347v-.158h-11.557v-5.006h19.42v3.495l-12.47 18.11v.16h12.668v5.005z"/>
</svg>
