<svg xmlns="http://www.w3.org/2000/svg" width="90.332" height="102" viewBox="17.427 5.03 90.332 102" enable-background="new 17.427 5.03 90.332 102">
    <path d="M102.042 41.515h-2.449v-11.819l-.021-.223c-.004-.469-.154-.93-.475-1.295l-19.666-22.464-.016-.014c-.117-.131-.254-.24-.398-.334l-.131-.078c-.125-.068-.258-.125-.395-.166l-.107-.035c-.148-.035-.303-.057-.459-.057h-48.332c-2.207 0-4 1.795-4 4v32.484h-2.449c-3.157 0-5.717 2.559-5.717 5.717v29.73c0 3.156 2.56 5.717 5.717 5.717h2.449v20.352c0 2.205 1.793 4 4 4h66c2.205 0 4-1.795 4-4v-20.351h2.449c3.157 0 5.717-2.561 5.717-5.717v-29.73c0-3.159-2.559-5.717-5.717-5.717zm-72.449-32.485h46.332v20.465c0 1.105.896 2 2 2h17.668v10.02h-66v-32.485zm49.837 65.815h-5.768l-.388-9.989c-.116-3.135-.232-6.928-.232-10.724h-.116c-.813 3.328-1.897 7.048-2.904 10.104l-3.174 10.181h-4.607l-2.787-10.103c-.853-3.057-1.743-6.774-2.362-10.183h-.077c-.155 3.526-.271 7.549-.465 10.802l-.465 9.911h-5.458l1.664-26.092h7.859l2.555 8.707c.813 3.021 1.626 6.273 2.207 9.332h.117c.734-3.021 1.625-6.465 2.477-9.367l2.787-8.672h7.705l1.432 26.093zm-55.172-.116v-25.628c2.168-.348 4.994-.543 7.975-.543 4.955 0 8.168.893 10.686 2.787 2.71 2.012 4.412 5.227 4.412 9.835 0 4.993-1.819 8.438-4.335 10.568-2.749 2.282-6.93 3.368-12.04 3.368-3.06 0-5.227-.195-6.698-.387zm71.335 27.217h-66v-19.267h66v19.267zm4.709-39.065c-2.013 1.899-4.994 2.751-8.479 2.751-.775 0-1.471-.039-2.013-.119v9.332h-5.846v-25.744c1.819-.31 4.375-.543 7.975-.543 3.639 0 6.233.696 7.976 2.09 1.664 1.316 2.787 3.484 2.787 6.04s-.851 4.721-2.4 6.193zm-8.052-9.871c-1.201 0-2.013.113-2.439.231v7.705c.502.115 1.123.156 1.974.156 3.136 0 5.072-1.588 5.072-4.262-.001-2.397-1.665-3.83-4.607-3.83zm-51.19 8.362c.039-5.42-3.137-8.284-8.208-8.284-1.316 0-2.168.113-2.672.231v17.073c.503.115 1.316.115 2.053.115 5.342.041 8.827-2.904 8.827-9.135z"/>
</svg>
