<svg xmlns="http://www.w3.org/2000/svg" width="90.332" height="102" viewBox="17.713 12.443 90.332 102" enable-background="new 17.713 12.443 90.332 102">
    <path d="M89.958 66.245l-3.628 5.921v.083h6.086v-6.004c0-1.625.084-3.293.209-5.044h-.166c-.875 1.751-1.585 3.334-2.501 5.044zm12.37-17.317h-2.449v-11.818l-.021-.223c-.004-.469-.154-.93-.475-1.295l-19.666-22.465-.016-.014c-.117-.131-.254-.24-.398-.334l-.131-.078c-.125-.068-.258-.125-.395-.166l-.107-.035c-.148-.035-.303-.057-.459-.057h-48.332c-2.207 0-4 1.795-4 4v32.484h-2.449c-3.157 0-5.717 2.559-5.717 5.717v29.73c0 3.156 2.56 5.717 5.717 5.717h2.449v20.352c0 2.205 1.793 4 4 4h66c2.205 0 4-1.795 4-4v-20.351h2.449c3.157 0 5.717-2.561 5.717-5.717v-29.73c0-3.158-2.56-5.717-5.717-5.717zm-72.449-32.484h46.332v20.465c0 1.105.896 2 2 2h17.668v10.02h-66v-32.485zm48.276 47.467c0 2.75-.919 5.085-2.585 6.668-2.167 2.045-5.376 2.961-9.13 2.961-.834 0-1.584-.041-2.166-.124v10.045h-6.298v-27.722c1.96-.334 4.711-.585 8.589-.585 3.92 0 6.711.751 8.589 2.253 1.791 1.416 3.001 3.751 3.001 6.504zm-49.115-2.753h-.085c-.165 3.793-.29 8.131-.5 11.632l-.497 10.673h-5.882l1.794-28.098h8.464l2.75 9.38c.876 3.252 1.751 6.754 2.378 10.048h.125c.789-3.253 1.751-6.963 2.667-10.089l3.003-9.339h8.296l1.543 28.098h-6.213l-.416-10.757c-.127-3.374-.25-7.462-.25-11.547h-.125c-.875 3.586-2.044 7.59-3.128 10.884l-3.419 10.964h-4.961l-3.001-10.883c-.918-3.295-1.875-7.297-2.543-10.966zm66.839 48.202h-66v-19.268h66v19.268zm5.794-32.358h-3.254v6.46h-6.003v-6.46h-12.006v-4.128l10.255-16.509h7.754v15.884h3.254v4.753zm-34.776-17.052c-1.291 0-2.166.125-2.623.249v8.297c.538.124 1.207.167 2.125.167 3.376 0 5.461-1.709 5.461-4.587 0-2.583-1.794-4.126-4.963-4.126z"/>
</svg>
