<svg xmlns="http://www.w3.org/2000/svg" width="90.332" height="102" viewBox="18.592 12.037 90.332 102" enable-background="new 18.592 12.037 90.332 102">
    <path d="M103.207 48.521h-2.449v-11.818l-.021-.223c-.004-.469-.154-.93-.475-1.295l-19.666-22.464-.016-.014c-.117-.131-.254-.24-.398-.334l-.131-.078c-.125-.068-.258-.125-.395-.166l-.107-.035c-.148-.035-.303-.057-.459-.057h-48.332c-2.207 0-4 1.795-4 4v32.484h-2.449c-3.157 0-5.717 2.559-5.717 5.717v29.73c0 3.156 2.56 5.717 5.717 5.717h2.449v20.352c0 2.205 1.793 4 4 4h66c2.205 0 4-1.795 4-4v-20.351h2.449c3.157 0 5.717-2.561 5.717-5.717v-29.73c0-3.159-2.56-5.718-5.717-5.718zm-72.449-32.484h46.332v20.465c0 1.105.896 2 2 2h17.668v10.02h-66v-32.485zm33.292 54.757h-2.414v-4.242h2.297c1.985-.039 4.516-.777 4.516-2.92 0-1.518-1.246-2.646-3.737-2.646-2.063 0-4.243.895-5.294 1.518l-1.206-4.281c1.518-.975 4.554-1.906 7.825-1.906 5.41 0 8.408 2.84 8.408 6.303 0 2.688-1.519 4.791-4.633 5.879v.078c3.037.547 5.489 2.842 5.489 6.15 0 4.479-3.932 7.748-10.355 7.748-3.27 0-6.034-.855-7.513-1.791l1.207-4.438c1.051.545 3.465 1.557 5.878 1.557 3.075 0 4.632-1.479 4.632-3.387 0-2.491-2.491-3.622-5.1-3.622zm-33.551 11.252h-5.489l1.674-26.238h7.902l2.569 8.76c.818 3.035 1.635 6.307 2.219 9.381h.117c.74-3.037 1.635-6.502 2.492-9.42l2.802-8.721h7.747l1.44 26.238h-5.801l-.389-10.043c-.117-3.154-.233-6.971-.233-10.785h-.117c-.817 3.35-1.908 7.086-2.919 10.16l-3.192 10.24h-4.633l-2.803-10.162c-.856-3.074-1.751-6.813-2.374-10.238h-.079c-.155 3.543-.272 7.592-.466 10.861l-.467 9.967zm66.259 26.907h-66v-19.267h66v19.267zm4.778-38.431c0 8.098-4.088 11.951-10.939 11.951-6.618 0-10.511-3.66-10.511-12.029v-14.636h5.956v15.104c0 4.516 1.712 6.814 4.749 6.814 3.115 0 4.827-2.18 4.827-6.814v-15.104h5.917l.001 14.714z"/>
</svg>
