<svg xmlns="http://www.w3.org/2000/svg" width="90.332" height="102" viewBox="18.129 12.479 90.332 102" enable-background="new 18.129 12.479 90.332 102">
    <path d="M102.745 48.964h-2.449v-11.818l-.021-.223c-.004-.469-.154-.93-.475-1.295l-19.667-22.465-.016-.014c-.117-.131-.254-.24-.398-.334l-.131-.078c-.125-.068-.258-.125-.395-.166l-.107-.035c-.148-.035-.303-.057-.459-.057h-48.332c-2.207 0-4 1.795-4 4v32.484h-2.449c-3.157 0-5.717 2.559-5.717 5.717v29.73c0 3.156 2.56 5.717 5.717 5.717h2.449v20.352c0 2.205 1.793 4 4 4h66c2.205 0 4-1.795 4-4v-20.351h2.449c3.157 0 5.717-2.561 5.717-5.717v-29.73c0-3.159-2.559-5.717-5.716-5.717zm-72.45-32.485h46.332v20.465c0 1.105.896 2 2 2h17.668v10.02h-66v-32.485zm44.882 61.619v5.801h-19.084v-30.549h6.937v24.748h12.147zm-49.132 5.8l8.839-15.455-8.522-15.093h7.932l2.674 5.574c.907 1.857 1.587 3.355 2.313 5.076h.089c.727-1.949 1.315-3.309 2.085-5.076l2.584-5.574h7.887l-8.613 14.912 9.067 15.637h-7.978l-2.765-5.529c-1.132-2.131-1.858-3.717-2.719-5.484h-.091c-.635 1.768-1.404 3.354-2.356 5.484l-2.539 5.529-7.887-.001zm70.25 25.498h-66v-19.268h66v19.268zm-9.562-25.042c-3.489 0-6.935-.908-8.656-1.859l1.404-5.711c1.859.951 4.715 1.904 7.661 1.904 3.174 0 4.85-1.314 4.85-3.309 0-1.904-1.45-2.992-5.122-4.307-5.076-1.768-8.386-4.578-8.386-9.021 0-5.213 4.352-9.201 11.561-9.201 3.443 0 5.982.727 7.795 1.541l-1.541 5.576c-1.224-.59-3.4-1.451-6.391-1.451s-4.441 1.359-4.441 2.947c0 1.949 1.721 2.811 5.665 4.307 5.393 1.994 7.932 4.803 7.932 9.109-.001 5.123-3.944 9.475-12.331 9.475z"/>
</svg>
