<svg xmlns="http://www.w3.org/2000/svg" width="90.332" height="102" viewBox="18.842 12.556 90.332 102" enable-background="new 18.842 12.556 90.332 102">
    <path d="M38.217 64.851c-.51-1.7-1.02-3.825-1.445-5.525h-.084c-.426 1.7-.852 3.869-1.318 5.525l-1.7 6.079h6.331l-1.784-6.079zm24.824-5.695c-1.318 0-2.21.127-2.679.255v8.457c.553.128 1.233.171 2.169.171 3.443 0 5.566-1.743 5.566-4.677 0-2.634-1.827-4.206-5.056-4.206zm40.416-10.115h-2.449v-11.819l-.021-.223c-.004-.469-.154-.93-.475-1.295l-19.666-22.464-.016-.014c-.117-.131-.254-.24-.398-.334l-.131-.078c-.125-.068-.258-.125-.395-.166l-.107-.035c-.148-.035-.303-.057-.459-.057h-48.332c-2.207 0-4 1.795-4 4v32.484h-2.449c-3.157 0-5.717 2.559-5.717 5.717v29.73c0 3.156 2.56 5.717 5.717 5.717h2.449v20.352c0 2.205 1.793 4 4 4h66c2.205 0 4-1.795 4-4v-20.351h2.449c3.157 0 5.717-2.561 5.717-5.717v-29.73c0-3.159-2.56-5.717-5.717-5.717zm-72.449-32.485h46.332v20.465c0 1.105.896 2 2 2h17.668v10.02h-66v-32.485zm43.507 46.638c0 2.804-.935 5.184-2.633 6.8-2.212 2.082-5.484 3.018-9.31 3.018-.849 0-1.613-.043-2.209-.128v10.242h-6.417v-28.263c1.998-.339 4.804-.594 8.754-.594 3.997 0 6.843.764 8.757 2.293 1.827 1.446 3.058 3.826 3.058 6.632zm-43.819 19.932h-6.715l8.754-28.646h8.5l8.882 28.646h-6.971l-2.209-7.352h-8.202l-2.039 7.352zm66.312 26.346h-66v-19.267h66v19.267zm-2.471-26.346l-7.014-12.367-2.465 3.018v9.35h-6.417v-28.647h6.417v12.665h.127c.637-1.104 1.318-2.124 1.955-3.145l6.504-9.521h7.947l-9.479 12.198 9.988 16.448h-7.563v.001z"/>
</svg>
