<svg xmlns="http://www.w3.org/2000/svg" width="90.332" height="102" viewBox="18.129 12.479 90.332 102" enable-background="new 18.129 12.479 90.332 102">
    <path d="M43.909 68.121c.04-5.607-3.245-8.572-8.493-8.572-1.361 0-2.243.121-2.764.242v17.664c.521.121 1.362.121 2.123.121 5.528.039 9.134-3.004 9.134-9.455zm19.386-8.572c-1.361 0-2.243.121-2.763.242v17.664c.521.121 1.362.121 2.123.121 5.528.039 9.134-3.004 9.134-9.455.039-5.607-3.245-8.572-8.494-8.572zm39.45-10.585h-2.449v-11.818l-.021-.223c-.004-.469-.154-.93-.475-1.295l-19.667-22.465-.016-.014c-.117-.131-.254-.24-.398-.334l-.131-.078c-.125-.068-.258-.125-.395-.166l-.107-.035c-.148-.035-.303-.057-.459-.057h-48.332c-2.207 0-4 1.795-4 4v32.484h-2.449c-3.157 0-5.717 2.559-5.717 5.717v29.73c0 3.156 2.56 5.717 5.717 5.717h2.449v20.352c0 2.205 1.793 4 4 4h66c2.205 0 4-1.795 4-4v-20.351h2.449c3.157 0 5.717-2.561 5.717-5.717v-29.73c0-3.159-2.559-5.717-5.716-5.717zm-72.45-32.485h46.332v20.465c0 1.105.896 2 2 2h17.668v10.02h-66v-32.485zm47.982 51.443c0 5.168-1.882 8.732-4.485 10.938-2.844 2.361-7.17 3.482-12.458 3.482-3.166 0-5.408-.199-6.931-.4v-26.52c2.244-.359 5.168-.559 8.252-.559 5.127 0 8.453.922 11.056 2.883 2.805 2.084 4.566 5.408 4.566 10.176zm-51.754 14.019v-26.52c2.244-.359 5.167-.559 8.252-.559 5.127 0 8.453.922 11.056 2.883 2.805 2.084 4.567 5.408 4.567 10.176 0 5.168-1.883 8.732-4.486 10.938-2.844 2.361-7.17 3.482-12.458 3.482-3.165.001-5.408-.198-6.931-.4zm69.772 27.455h-66v-19.268h66v19.268zm-7.403-26.933c-3.084 0-6.128-.801-7.651-1.643l1.242-5.047c1.643.84 4.166 1.682 6.77 1.682 2.804 0 4.286-1.16 4.286-2.924 0-1.682-1.283-2.645-4.526-3.807-4.487-1.561-7.412-4.045-7.412-7.971 0-4.607 3.846-8.133 10.216-8.133 3.044 0 5.288.643 6.89 1.363l-1.362 4.928c-1.082-.521-3.005-1.283-5.648-1.283-2.645 0-3.926 1.203-3.926 2.604 0 1.723 1.521 2.486 5.007 3.807 4.767 1.762 7.01 4.246 7.01 8.051 0 4.527-3.486 8.373-10.896 8.373z"/>
</svg>
